%YAML 1.1
%TAG !u! tag:unity3d.com,2011:
--- !u!21 &2100000
Material:
  serializedVersion: 8
  m_ObjectHideFlags: 0
  m_CorrespondingSourceObject: {fileID: 0}
  m_PrefabInstance: {fileID: 0}
  m_PrefabAsset: {fileID: 0}
  m_Name: PoolScene_Water_09 Variant
  m_Shader: {fileID: 4800000, guid: efcaf526ceb1f4efd9eb4e4c30c6ade6, type: 3}
  m_Parent: {fileID: 2100000, guid: 70f323c2ab50a4556a50926c0fe52b55, type: 2}
  m_ModifiedSerializedProperties: 0
  m_ValidKeywords:
  - _COLORMODE_GRADIENT_TEXTURE
  - _FOAMMODE_GRADIENT_NOISE
  - _WAVEMODE_GRID
  m_InvalidKeywords:
  - _ALLOWALPHAOVERFLOW_OFF
  - _OPAQUE_OFF
  m_LightmapFlags: 4
  m_EnableInstancingVariants: 0
  m_DoubleSidedGI: 0
  m_CustomRenderQueue: -1
  stringTagMap:
    RenderType: Transparent
  disabledShaderPasses: []
  m_LockedProperties: 
  m_SavedProperties:
    serializedVersion: 3
    m_TexEnvs:
    - _ColorGradient:
        m_Texture: {fileID: 2800000, guid: f0ca886fcf3f40f40ab3934c12893304, type: 3}
        m_Scale: {x: 1, y: 1}
        m_Offset: {x: 0, y: 0}
    m_Ints: []
    m_Floats: []
    m_Colors: []
  m_BuildTextureStacks: []
