%YAML 1.1
%TAG !u! tag:unity3d.com,2011:
--- !u!1 &3352414795435607485
GameObject:
  m_ObjectHideFlags: 0
  m_CorrespondingSourceObject: {fileID: 0}
  m_PrefabInstance: {fileID: 0}
  m_PrefabAsset: {fileID: 0}
  serializedVersion: 6
  m_Component:
  - component: {fileID: 1557111654919231250}
  m_Layer: 0
  m_Name: ExplosiveMonters
  m_TagString: Untagged
  m_Icon: {fileID: 0}
  m_NavMeshLayer: 0
  m_StaticEditorFlags: 0
  m_IsActive: 1
--- !u!4 &1557111654919231250
Transform:
  m_ObjectHideFlags: 0
  m_CorrespondingSourceObject: {fileID: 0}
  m_PrefabInstance: {fileID: 0}
  m_PrefabAsset: {fileID: 0}
  m_GameObject: {fileID: 3352414795435607485}
  serializedVersion: 2
  m_LocalRotation: {x: -0, y: -0, z: -0, w: 1}
  m_LocalPosition: {x: 6.85, y: 0.87999994, z: 2.53}
  m_LocalScale: {x: 0.5, y: 0.5, z: 0.5}
  m_ConstrainProportionsScale: 1
  m_Children:
  - {fileID: 4484244675322713131}
  m_Father: {fileID: 0}
  m_LocalEulerAnglesHint: {x: 0, y: 0, z: 0}
--- !u!1001 &4157250971127346112
PrefabInstance:
  m_ObjectHideFlags: 0
  serializedVersion: 2
  m_Modification:
    serializedVersion: 3
    m_TransformParent: {fileID: 1557111654919231250}
    m_Modifications:
    - target: {fileID: -8679921383154817045, guid: 5c3d41410ae740542b5c5a9b382974f1,
        type: 3}
      propertyPath: m_LocalScale.x
      value: 1
      objectReference: {fileID: 0}
    - target: {fileID: -8679921383154817045, guid: 5c3d41410ae740542b5c5a9b382974f1,
        type: 3}
      propertyPath: m_LocalScale.y
      value: 1
      objectReference: {fileID: 0}
    - target: {fileID: -8679921383154817045, guid: 5c3d41410ae740542b5c5a9b382974f1,
        type: 3}
      propertyPath: m_LocalScale.z
      value: 1
      objectReference: {fileID: 0}
    - target: {fileID: -8679921383154817045, guid: 5c3d41410ae740542b5c5a9b382974f1,
        type: 3}
      propertyPath: m_LocalPosition.x
      value: 0
      objectReference: {fileID: 0}
    - target: {fileID: -8679921383154817045, guid: 5c3d41410ae740542b5c5a9b382974f1,
        type: 3}
      propertyPath: m_LocalPosition.y
      value: 0
      objectReference: {fileID: 0}
    - target: {fileID: -8679921383154817045, guid: 5c3d41410ae740542b5c5a9b382974f1,
        type: 3}
      propertyPath: m_LocalPosition.z
      value: 0
      objectReference: {fileID: 0}
    - target: {fileID: -8679921383154817045, guid: 5c3d41410ae740542b5c5a9b382974f1,
        type: 3}
      propertyPath: m_LocalRotation.w
      value: 1
      objectReference: {fileID: 0}
    - target: {fileID: -8679921383154817045, guid: 5c3d41410ae740542b5c5a9b382974f1,
        type: 3}
      propertyPath: m_LocalRotation.x
      value: -0
      objectReference: {fileID: 0}
    - target: {fileID: -8679921383154817045, guid: 5c3d41410ae740542b5c5a9b382974f1,
        type: 3}
      propertyPath: m_LocalRotation.y
      value: -0
      objectReference: {fileID: 0}
    - target: {fileID: -8679921383154817045, guid: 5c3d41410ae740542b5c5a9b382974f1,
        type: 3}
      propertyPath: m_LocalRotation.z
      value: -0
      objectReference: {fileID: 0}
    - target: {fileID: -8679921383154817045, guid: 5c3d41410ae740542b5c5a9b382974f1,
        type: 3}
      propertyPath: m_LocalEulerAnglesHint.x
      value: 0
      objectReference: {fileID: 0}
    - target: {fileID: -8679921383154817045, guid: 5c3d41410ae740542b5c5a9b382974f1,
        type: 3}
      propertyPath: m_LocalEulerAnglesHint.y
      value: 0
      objectReference: {fileID: 0}
    - target: {fileID: -8679921383154817045, guid: 5c3d41410ae740542b5c5a9b382974f1,
        type: 3}
      propertyPath: m_LocalEulerAnglesHint.z
      value: 0
      objectReference: {fileID: 0}
    - target: {fileID: -8679921383154817045, guid: 5c3d41410ae740542b5c5a9b382974f1,
        type: 3}
      propertyPath: m_ConstrainProportionsScale
      value: 1
      objectReference: {fileID: 0}
    - target: {fileID: 919132149155446097, guid: 5c3d41410ae740542b5c5a9b382974f1,
        type: 3}
      propertyPath: m_Name
      value: "BallMonster\xE72"
      objectReference: {fileID: 0}
    m_RemovedComponents: []
    m_RemovedGameObjects: []
    m_AddedGameObjects: []
    m_AddedComponents:
    - targetCorrespondingSourceObject: {fileID: 919132149155446097, guid: 5c3d41410ae740542b5c5a9b382974f1,
        type: 3}
      insertIndex: -1
      addedObject: {fileID: 4343434034050265460}
    - targetCorrespondingSourceObject: {fileID: 919132149155446097, guid: 5c3d41410ae740542b5c5a9b382974f1,
        type: 3}
      insertIndex: -1
      addedObject: {fileID: 5257593403182575483}
  m_SourcePrefab: {fileID: 100100000, guid: 5c3d41410ae740542b5c5a9b382974f1, type: 3}
--- !u!1 &3850837623899442833 stripped
GameObject:
  m_CorrespondingSourceObject: {fileID: 919132149155446097, guid: 5c3d41410ae740542b5c5a9b382974f1,
    type: 3}
  m_PrefabInstance: {fileID: 4157250971127346112}
  m_PrefabAsset: {fileID: 0}
--- !u!135 &4343434034050265460
SphereCollider:
  m_ObjectHideFlags: 0
  m_CorrespondingSourceObject: {fileID: 0}
  m_PrefabInstance: {fileID: 0}
  m_PrefabAsset: {fileID: 0}
  m_GameObject: {fileID: 3850837623899442833}
  m_Material: {fileID: 0}
  m_IncludeLayers:
    serializedVersion: 2
    m_Bits: 0
  m_ExcludeLayers:
    serializedVersion: 2
    m_Bits: 0
  m_LayerOverridePriority: 0
  m_IsTrigger: 0
  m_ProvidesContacts: 0
  m_Enabled: 1
  serializedVersion: 3
  m_Radius: 1.0138807
  m_Center: {x: -0.020301253, y: 1.2533736, z: 0.23251891}
--- !u!95 &5257593403182575483
Animator:
  serializedVersion: 5
  m_ObjectHideFlags: 0
  m_CorrespondingSourceObject: {fileID: 0}
  m_PrefabInstance: {fileID: 0}
  m_PrefabAsset: {fileID: 0}
  m_GameObject: {fileID: 3850837623899442833}
  m_Enabled: 1
  m_Avatar: {fileID: 0}
  m_Controller: {fileID: 9100000, guid: 5d9ef57d018e98445b61f1ef09979373, type: 2}
  m_CullingMode: 0
  m_UpdateMode: 0
  m_ApplyRootMotion: 0
  m_LinearVelocityBlending: 0
  m_StabilizeFeet: 0
  m_WarningMessage: 
  m_HasTransformHierarchy: 1
  m_AllowConstantClipSamplingOptimization: 1
  m_KeepAnimatorStateOnDisable: 0
  m_WriteDefaultValuesOnDisable: 0
--- !u!4 &4484244675322713131 stripped
Transform:
  m_CorrespondingSourceObject: {fileID: -8679921383154817045, guid: 5c3d41410ae740542b5c5a9b382974f1,
    type: 3}
  m_PrefabInstance: {fileID: 4157250971127346112}
  m_PrefabAsset: {fileID: 0}
