%YAML 1.1
%TAG !u! tag:unity3d.com,2011:
--- !u!1001 &3275935142420444560
PrefabInstance:
  m_ObjectHideFlags: 0
  serializedVersion: 2
  m_Modification:
    serializedVersion: 3
    m_TransformParent: {fileID: 0}
    m_Modifications:
    - target: {fileID: 2991000343605154907, guid: 7d484528ed38c0c469f6885ef2cc1149,
        type: 3}
      propertyPath: m_LocalScale.x
      value: -0.01733951
      objectReference: {fileID: 0}
    - target: {fileID: 2991000343605154907, guid: 7d484528ed38c0c469f6885ef2cc1149,
        type: 3}
      propertyPath: m_LocalScale.y
      value: 0.01733951
      objectReference: {fileID: 0}
    - target: {fileID: 2991000343605154907, guid: 7d484528ed38c0c469f6885ef2cc1149,
        type: 3}
      propertyPath: m_LocalScale.z
      value: 0.01733951
      objectReference: {fileID: 0}
    - target: {fileID: 2991000343605154907, guid: 7d484528ed38c0c469f6885ef2cc1149,
        type: 3}
      propertyPath: m_LocalPosition.x
      value: 0.312
      objectReference: {fileID: 0}
    - target: {fileID: 2991000343605154907, guid: 7d484528ed38c0c469f6885ef2cc1149,
        type: 3}
      propertyPath: m_LocalPosition.y
      value: -0.1481
      objectReference: {fileID: 0}
    - target: {fileID: 2991000343605154907, guid: 7d484528ed38c0c469f6885ef2cc1149,
        type: 3}
      propertyPath: m_LocalPosition.z
      value: 0.2922
      objectReference: {fileID: 0}
    - target: {fileID: 2991000343605154907, guid: 7d484528ed38c0c469f6885ef2cc1149,
        type: 3}
      propertyPath: m_LocalRotation.w
      value: 1
      objectReference: {fileID: 0}
    - target: {fileID: 2991000343605154907, guid: 7d484528ed38c0c469f6885ef2cc1149,
        type: 3}
      propertyPath: m_LocalRotation.x
      value: -0
      objectReference: {fileID: 0}
    - target: {fileID: 2991000343605154907, guid: 7d484528ed38c0c469f6885ef2cc1149,
        type: 3}
      propertyPath: m_LocalRotation.y
      value: -0
      objectReference: {fileID: 0}
    - target: {fileID: 2991000343605154907, guid: 7d484528ed38c0c469f6885ef2cc1149,
        type: 3}
      propertyPath: m_LocalRotation.z
      value: -0
      objectReference: {fileID: 0}
    - target: {fileID: 2991000343605154907, guid: 7d484528ed38c0c469f6885ef2cc1149,
        type: 3}
      propertyPath: m_LocalEulerAnglesHint.x
      value: 0
      objectReference: {fileID: 0}
    - target: {fileID: 2991000343605154907, guid: 7d484528ed38c0c469f6885ef2cc1149,
        type: 3}
      propertyPath: m_LocalEulerAnglesHint.y
      value: 0
      objectReference: {fileID: 0}
    - target: {fileID: 2991000343605154907, guid: 7d484528ed38c0c469f6885ef2cc1149,
        type: 3}
      propertyPath: m_LocalEulerAnglesHint.z
      value: 0
      objectReference: {fileID: 0}
    - target: {fileID: 2991000343605154907, guid: 7d484528ed38c0c469f6885ef2cc1149,
        type: 3}
      propertyPath: m_ConstrainProportionsScale
      value: 0
      objectReference: {fileID: 0}
    - target: {fileID: 3845034837970357579, guid: 7d484528ed38c0c469f6885ef2cc1149,
        type: 3}
      propertyPath: Mute
      value: 0
      objectReference: {fileID: 0}
    - target: {fileID: 6095279460575222067, guid: 7d484528ed38c0c469f6885ef2cc1149,
        type: 3}
      propertyPath: m_Name
      value: RightViperPunch Variant
      objectReference: {fileID: 0}
    m_RemovedComponents: []
    m_RemovedGameObjects: []
    m_AddedGameObjects: []
    m_AddedComponents: []
  m_SourcePrefab: {fileID: 100100000, guid: 7d484528ed38c0c469f6885ef2cc1149, type: 3}
