%YAML 1.1
%TAG !u! tag:unity3d.com,2011:
--- !u!114 &-3210416766352737100
MonoBehaviour:
  m_ObjectHideFlags: 3
  m_CorrespondingSourceObject: {fileID: 0}
  m_PrefabInstance: {fileID: 0}
  m_PrefabAsset: {fileID: 0}
  m_GameObject: {fileID: 0}
  m_Enabled: 1
  m_EditorHideFlags: 0
  m_Script: {fileID: 11500000, guid: 5485954d14dfb9a4c8ead8edb0ded5b1, type: 3}
  m_Name: LiftGammaGain
  m_EditorClassIdentifier: 
  active: 1
  lift:
    m_OverrideState: 1
    m_Value: {x: 0.99432236, y: 0.9834114, z: 1, w: 0}
  gamma:
    m_OverrideState: 1
    m_Value: {x: 0.99045527, y: 0.9809107, z: 1, w: -0.012217471}
  gain:
    m_OverrideState: 0
    m_Value: {x: 0.9807173, y: 0.985538, z: 1, w: 0}
--- !u!114 &11400000
MonoBehaviour:
  m_ObjectHideFlags: 0
  m_CorrespondingSourceObject: {fileID: 0}
  m_PrefabInstance: {fileID: 0}
  m_PrefabAsset: {fileID: 0}
  m_GameObject: {fileID: 0}
  m_Enabled: 1
  m_EditorHideFlags: 0
  m_Script: {fileID: 11500000, guid: d7fd9488000d3734a9e00ee676215985, type: 3}
  m_Name: Desert Camera Profile
  m_EditorClassIdentifier: 
  components:
  - {fileID: 8484487375605585349}
  - {fileID: -3210416766352737100}
--- !u!114 &8484487375605585349
MonoBehaviour:
  m_ObjectHideFlags: 3
  m_CorrespondingSourceObject: {fileID: 0}
  m_PrefabInstance: {fileID: 0}
  m_PrefabAsset: {fileID: 0}
  m_GameObject: {fileID: 0}
  m_Enabled: 1
  m_EditorHideFlags: 0
  m_Script: {fileID: 11500000, guid: 0b2db86121404754db890f4c8dfe81b2, type: 3}
  m_Name: Bloom
  m_EditorClassIdentifier: 
  active: 1
  skipIterations:
    m_OverrideState: 0
    m_Value: 1
  threshold:
    m_OverrideState: 1
    m_Value: 0.85
  intensity:
    m_OverrideState: 1
    m_Value: 1.05
  scatter:
    m_OverrideState: 0
    m_Value: 0.7
  clamp:
    m_OverrideState: 0
    m_Value: 65472
  tint:
    m_OverrideState: 0
    m_Value: {r: 1, g: 1, b: 1, a: 1}
  highQualityFiltering:
    m_OverrideState: 0
    m_Value: 0
  downscale:
    m_OverrideState: 0
    m_Value: 0
  maxIterations:
    m_OverrideState: 0
    m_Value: 6
  dirtTexture:
    m_OverrideState: 0
    m_Value: {fileID: 0}
    dimension: 1
  dirtIntensity:
    m_OverrideState: 0
    m_Value: 0
