digraph G {
node0 [shape="box" color="cyan" style="filled" label="VFXValue`1 Boolean (True)
_vfx_enabled_a"]
node1 [shape="box" color="cyan" style="filled" label="VFXExpressionMax Float
Rate_a"]
node2 [shape="box" color="lightgray" style="filled" label="VFXValue`1 Float (16)"]
node3 [shape="box" color="lightslategray" style="filled" label="VFXValue`1 Float (0)"]
node4 [shape="box" color="cyan" style="filled" label="VFXExpressionCombine Float3
bounds_center"]
node5 [shape="box" color="lightgray" style="filled" label="VFXValue`1 Float (-0,008661509)"]
node6 [shape="box" color="lightgray" style="filled" label="VFXValue`1 Float (1,401422)"]
node7 [shape="box" color="lightgray" style="filled" label="VFXValue`1 Float (-0,01848245)"]
node8 [shape="box" color="cyan" style="filled" label="VFXExpressionCombine Float3
bounds_size"]
node9 [shape="box" color="lightgray" style="filled" label="VFXValue`1 Float (3,004998)"]
node10 [shape="box" color="lightgray" style="filled" label="VFXValue`1 Float (3,960069)"]
node11 [shape="box" color="lightgray" style="filled" label="VFXValue`1 Float (3,060745)"]
node12 [shape="box" color="cyan" style="filled" label="VFXExpressionMin Float3
boundsPadding"]
node13 [shape="box" color="lightgray" style="filled" label="VFXExpressionMax Float3"]
node14 [shape="box" color="lightgray" style="filled" label="VFXExpressionCombine Float3"]
node15 [shape="box" color="lightgray" style="filled" label="VFXValue`1 Float (0,5)"]
node16 [shape="box" color="lightgray" style="filled" label="VFXValue`1 Float (0,5)"]
node17 [shape="box" color="lightgray" style="filled" label="VFXValue`1 Float (0,5)"]
node18 [shape="box" color="lightgray" style="filled" label="VFXExpressionCombine Float3"]
node19 [shape="box" color="lightslategray" style="filled" label="VFXValue`1 Float (-1,701412E+38)"]
node20 [shape="box" color="lightgray" style="filled" label="VFXExpressionCombine Float3"]
node21 [shape="box" color="lightslategray" style="filled" label="VFXValue`1 Float (1,701412E+38)"]
node22 [shape="box" color="cyan" style="filled" label="VFXValue`1 Boolean (True)
_vfx_enabled_a"]
node23 [shape="box" color="cyan" style="filled" label="VFXValue`1 Float (0,4)
A_a"]
node24 [shape="box" color="cyan" style="filled" label="VFXValue`1 Float (0,9)
B_a"]
node25 [shape="box" color="cyan" style="filled" label="VFXValue`1 Boolean (True)
_vfx_enabled_b"]
node26 [shape="box" color="orange" style="filled" label="VFXExpressionPow Float
rNorm_b"]
node27 [shape="box" color="yellow" style="filled" label="VFXExpressionAdd Float"]
node28 [shape="box" color="lightgray" style="filled" label="VFXExpressionPow Float"]
node29 [shape="box" color="lightgray" style="filled" label="VFXExpressionSubtract Float"]
node30 [shape="box" color="lightslategray" style="filled" label="VFXValue`1 Float (1)"]
node31 [shape="box" color="lightslategray" style="filled" label="VFXValue`1 Float (2)"]
node32 [shape="box" color="yellow" style="filled" label="VFXExpressionMul Float"]
node33 [shape="box" color="lightgray" style="filled" label="VFXExpressionSubtract Float"]
node34 [shape="box" color="yellow" style="filled" label="VFXExpressionRandom Float"]
node35 [shape="box" color="lightslategray" style="filled" label="VFXValue`1 Float (0,5)"]
node36 [shape="box" color="orange" style="filled" label="VFXExpressionSin Float
sinTheta_b"]
node37 [shape="box" color="yellow" style="filled" label="VFXExpressionMul Float"]
node38 [shape="box" color="lightgray" style="filled" label="VFXExpressionMin Float"]
node39 [shape="box" color="lightgray" style="filled" label="VFXExpressionMax Float"]
node40 [shape="box" color="lightgray" style="filled" label="VFXValue`1 Float (6,283185)"]
node41 [shape="box" color="lightslategray" style="filled" label="VFXValue`1 Float (6,283185)"]
node42 [shape="box" color="yellow" style="filled" label="VFXExpressionRandom Float"]
node43 [shape="box" color="orange" style="filled" label="VFXExpressionCos Float
cosTheta_b"]
node44 [shape="box" color="cyan" style="filled" label="VFXExpressionTransformMatrix Matrix4x4
transform_b"]
node45 [shape="box" color="lightgray" style="filled" label="VFXExpressionTRSToMatrix Matrix4x4"]
node46 [shape="box" color="lightgray" style="filled" label="VFXExpressionCombine Float3"]
node47 [shape="box" color="lightgray" style="filled" label="VFXValue`1 Float (0)"]
node48 [shape="box" color="lightgray" style="filled" label="VFXValue`1 Float (0)"]
node49 [shape="box" color="lightgray" style="filled" label="VFXValue`1 Float (0)"]
node50 [shape="box" color="lightgray" style="filled" label="VFXExpressionCombine Float3"]
node51 [shape="box" color="lightgray" style="filled" label="VFXValue`1 Float (0)"]
node52 [shape="box" color="lightgray" style="filled" label="VFXValue`1 Float (0)"]
node53 [shape="box" color="lightgray" style="filled" label="VFXValue`1 Float (0)"]
node54 [shape="box" color="lightgray" style="filled" label="VFXExpressionCombine Float3"]
node55 [shape="box" color="lightgray" style="filled" label="VFXValue`1 Float (1)"]
node56 [shape="box" color="lightgray" style="filled" label="VFXValue`1 Float (1)"]
node57 [shape="box" color="lightgray" style="filled" label="VFXValue`1 Float (1)"]
node58 [shape="box" label="VFXExpressionTRSToMatrix Matrix4x4"]
node59 [shape="box" color="lightslategray" style="filled" label="VFXValue`1 Float3 ((0.00, 0.00, 0.00))"]
node60 [shape="box" label="VFXExpressionCombine Float3"]
node61 [shape="box" label="VFXValue`1 Float (1)"]
node62 [shape="box" color="cyan" style="filled" label="VFXExpressionTransposeMatrix Matrix4x4
inverseTranspose_b"]
node63 [shape="box" label="VFXExpressionInverseTRSMatrix Matrix4x4"]
node64 [shape="box" color="cyan" style="filled" label="VFXValue`1 Boolean (True)
_vfx_enabled_c"]
node65 [shape="box" color="orange" style="filled" label="VFXExpressionCombine Float3
Scale_c"]
node66 [shape="box" color="yellow" style="filled" label="VFXExpressionAdd Float"]
node67 [shape="box" label="VFXExpressionExtractComponent Float"]
node68 [shape="box" label="VFXValue`1 Float2 ((6.00, 10.00))"]
node69 [shape="box" color="yellow" style="filled" label="VFXExpressionMul Float"]
node70 [shape="box" color="yellow" style="filled" label="VFXExpressionRandom Float"]
node71 [shape="box" label="VFXExpressionSubtract Float"]
node72 [shape="box" label="VFXExpressionExtractComponent Float"]
node73 [shape="box" color="lightgray" style="filled" label="VFXValue`1 Float (1)"]
node74 [shape="box" color="lightgray" style="filled" label="VFXValue`1 Float (1)"]
node75 [shape="box" color="cyan" style="filled" label="VFXValue`1 Boolean (True)
_vfx_enabled_a"]
node76 [shape="box" color="cyan" style="filled" label="VFXBuiltInExpression Float (DeltaTime)
deltaTime_a"]
node77 [shape="box" color="cyan" style="filled" label="VFXValue`1 Boolean (True)
_vfx_enabled_b"]
node78 [shape="box" color="cyan" style="filled" label="VFXValue`1 Boolean (True)
_vfx_enabled_a"]
node79 [shape="box" color="cyan" style="filled" label="VFXValue`1 Boolean (True)
_vfx_enabled_b"]
node80 [shape="box" color="cyan" style="filled" label="VFXExpressionBakeCurve Float4
Size_b"]
node81 [shape="box" color="lightgray" style="filled" label="VFXValue`1 Curve (UnityEngine.AnimationCurve)"]
node82 [shape="box" color="cyan" style="filled" label="VFXValue`1 Boolean (True)
_vfx_enabled_c"]
node83 [shape="box" color="cyan" style="filled" label="VFXExpressionBakeGradient Float3
Color_c"]
node84 [shape="box" color="lightgray" style="filled" label="VFXValue`1 ColorGradient (UnityEngine.Gradient)"]
node85 [shape="box" color="cyan" style="filled" label="VFXTexture2DValue Texture2D (40690)
mainTexture"]
node2 -> node1 [headlabel="0"]
node3 -> node1 [headlabel="1"]
node5 -> node4 [headlabel="0"]
node6 -> node4 [headlabel="1"]
node7 -> node4 [headlabel="2"]
node9 -> node8 [headlabel="0"]
node10 -> node8 [headlabel="1"]
node11 -> node8 [headlabel="2"]
node13 -> node12 [headlabel="0"]
node20 -> node12 [headlabel="1"]
node14 -> node13 [headlabel="0"]
node18 -> node13 [headlabel="1"]
node15 -> node14 [headlabel="0"]
node16 -> node14 [headlabel="1"]
node17 -> node14 [headlabel="2"]
node19 -> node18 [headlabel="0"]
node19 -> node18 [headlabel="1"]
node19 -> node18 [headlabel="2"]
node21 -> node20 [headlabel="0"]
node21 -> node20 [headlabel="1"]
node21 -> node20 [headlabel="2"]
node27 -> node26 [headlabel="0"]
node35 -> node26 [headlabel="1"]
node28 -> node27 [headlabel="0"]
node32 -> node27 [headlabel="1"]
node29 -> node28 [headlabel="0"]
node31 -> node28 [headlabel="1"]
node30 -> node29 [headlabel="0"]
node3 -> node29 [headlabel="1"]
node33 -> node32 [headlabel="0"]
node34 -> node32 [headlabel="1"]
node30 -> node33 [headlabel="0"]
node28 -> node33 [headlabel="1"]
node37 -> node36 
node38 -> node37 [headlabel="0"]
node42 -> node37 [headlabel="1"]
node39 -> node38 [headlabel="0"]
node41 -> node38 [headlabel="1"]
node40 -> node39 [headlabel="0"]
node3 -> node39 [headlabel="1"]
node37 -> node43 
node45 -> node44 [headlabel="0"]
node58 -> node44 [headlabel="1"]
node46 -> node45 [headlabel="0"]
node50 -> node45 [headlabel="1"]
node54 -> node45 [headlabel="2"]
node47 -> node46 [headlabel="0"]
node48 -> node46 [headlabel="1"]
node49 -> node46 [headlabel="2"]
node51 -> node50 [headlabel="0"]
node52 -> node50 [headlabel="1"]
node53 -> node50 [headlabel="2"]
node55 -> node54 [headlabel="0"]
node56 -> node54 [headlabel="1"]
node57 -> node54 [headlabel="2"]
node59 -> node58 [headlabel="0"]
node59 -> node58 [headlabel="1"]
node60 -> node58 [headlabel="2"]
node61 -> node60 [headlabel="0"]
node61 -> node60 [headlabel="1"]
node61 -> node60 [headlabel="2"]
node63 -> node62 
node44 -> node63 
node66 -> node65 [headlabel="0"]
node73 -> node65 [headlabel="1"]
node74 -> node65 [headlabel="2"]
node67 -> node66 [headlabel="0"]
node69 -> node66 [headlabel="1"]
node68 -> node67 
node70 -> node69 [headlabel="0"]
node71 -> node69 [headlabel="1"]
node72 -> node71 [headlabel="0"]
node67 -> node71 [headlabel="1"]
node68 -> node72 
node81 -> node80 
node84 -> node83 
}
