%YAML 1.1
%TAG !u! tag:unity3d.com,2011:
--- !u!1001 &4601624148175581912
PrefabInstance:
  m_ObjectHideFlags: 0
  serializedVersion: 2
  m_Modification:
    serializedVersion: 3
    m_TransformParent: {fileID: 0}
    m_Modifications:
    - target: {fileID: 8102155472102180647, guid: d56b87557a2d32340bf36655f72d7ef8,
        type: 3}
      propertyPath: m_Materials.Array.size
      value: 1
      objectReference: {fileID: 0}
    - target: {fileID: 8102155472241809482, guid: d56b87557a2d32340bf36655f72d7ef8,
        type: 3}
      propertyPath: m_Materials.Array.size
      value: 1
      objectReference: {fileID: 0}
    - target: {fileID: 8102155472241809483, guid: d56b87557a2d32340bf36655f72d7ef8,
        type: 3}
      propertyPath: InitialModule.startColor.minColor.b
      value: 0
      objectReference: {fileID: 0}
    - target: {fileID: 8102155472241809483, guid: d56b87557a2d32340bf36655f72d7ef8,
        type: 3}
      propertyPath: InitialModule.startColor.minColor.g
      value: 0.16760457
      objectReference: {fileID: 0}
    - target: {fileID: 8102155472241809483, guid: d56b87557a2d32340bf36655f72d7ef8,
        type: 3}
      propertyPath: InitialModule.startColor.minColor.r
      value: 1
      objectReference: {fileID: 0}
    - target: {fileID: 8102155472272100141, guid: d56b87557a2d32340bf36655f72d7ef8,
        type: 3}
      propertyPath: m_Materials.Array.size
      value: 1
      objectReference: {fileID: 0}
    - target: {fileID: 8102155472272100142, guid: d56b87557a2d32340bf36655f72d7ef8,
        type: 3}
      propertyPath: InitialModule.startColor.maxColor.b
      value: 0
      objectReference: {fileID: 0}
    - target: {fileID: 8102155472272100142, guid: d56b87557a2d32340bf36655f72d7ef8,
        type: 3}
      propertyPath: InitialModule.startColor.maxColor.g
      value: 0.027672827
      objectReference: {fileID: 0}
    - target: {fileID: 8102155472272100142, guid: d56b87557a2d32340bf36655f72d7ef8,
        type: 3}
      propertyPath: InitialModule.startColor.maxColor.r
      value: 1
      objectReference: {fileID: 0}
    - target: {fileID: 8102155472272100142, guid: d56b87557a2d32340bf36655f72d7ef8,
        type: 3}
      propertyPath: InitialModule.startColor.minColor.b
      value: 0
      objectReference: {fileID: 0}
    - target: {fileID: 8102155472272100142, guid: d56b87557a2d32340bf36655f72d7ef8,
        type: 3}
      propertyPath: InitialModule.startColor.minColor.g
      value: 0.028497245
      objectReference: {fileID: 0}
    - target: {fileID: 8102155472272100142, guid: d56b87557a2d32340bf36655f72d7ef8,
        type: 3}
      propertyPath: InitialModule.startColor.minColor.r
      value: 1
      objectReference: {fileID: 0}
    - target: {fileID: 8102155473089344357, guid: d56b87557a2d32340bf36655f72d7ef8,
        type: 3}
      propertyPath: m_Name
      value: Plasma Ball Variant
      objectReference: {fileID: 0}
    - target: {fileID: 8102155473089344358, guid: d56b87557a2d32340bf36655f72d7ef8,
        type: 3}
      propertyPath: m_LocalPosition.x
      value: -4.5992184
      objectReference: {fileID: 0}
    - target: {fileID: 8102155473089344358, guid: d56b87557a2d32340bf36655f72d7ef8,
        type: 3}
      propertyPath: m_LocalPosition.y
      value: -58.63
      objectReference: {fileID: 0}
    - target: {fileID: 8102155473089344358, guid: d56b87557a2d32340bf36655f72d7ef8,
        type: 3}
      propertyPath: m_LocalPosition.z
      value: 136.49
      objectReference: {fileID: 0}
    - target: {fileID: 8102155473089344358, guid: d56b87557a2d32340bf36655f72d7ef8,
        type: 3}
      propertyPath: m_LocalRotation.w
      value: 1
      objectReference: {fileID: 0}
    - target: {fileID: 8102155473089344358, guid: d56b87557a2d32340bf36655f72d7ef8,
        type: 3}
      propertyPath: m_LocalRotation.x
      value: 0
      objectReference: {fileID: 0}
    - target: {fileID: 8102155473089344358, guid: d56b87557a2d32340bf36655f72d7ef8,
        type: 3}
      propertyPath: m_LocalRotation.y
      value: 0
      objectReference: {fileID: 0}
    - target: {fileID: 8102155473089344358, guid: d56b87557a2d32340bf36655f72d7ef8,
        type: 3}
      propertyPath: m_LocalRotation.z
      value: 0
      objectReference: {fileID: 0}
    - target: {fileID: 8102155473089344358, guid: d56b87557a2d32340bf36655f72d7ef8,
        type: 3}
      propertyPath: m_LocalEulerAnglesHint.x
      value: 0
      objectReference: {fileID: 0}
    - target: {fileID: 8102155473089344358, guid: d56b87557a2d32340bf36655f72d7ef8,
        type: 3}
      propertyPath: m_LocalEulerAnglesHint.y
      value: 0
      objectReference: {fileID: 0}
    - target: {fileID: 8102155473089344358, guid: d56b87557a2d32340bf36655f72d7ef8,
        type: 3}
      propertyPath: m_LocalEulerAnglesHint.z
      value: 0
      objectReference: {fileID: 0}
    m_RemovedComponents: []
    m_RemovedGameObjects: []
    m_AddedGameObjects: []
    m_AddedComponents:
    - targetCorrespondingSourceObject: {fileID: 8102155473089344357, guid: d56b87557a2d32340bf36655f72d7ef8,
        type: 3}
      insertIndex: -1
      addedObject: {fileID: 1534790495200645119}
    - targetCorrespondingSourceObject: {fileID: 8102155473089344357, guid: d56b87557a2d32340bf36655f72d7ef8,
        type: 3}
      insertIndex: -1
      addedObject: {fileID: -7051734694357910973}
    - targetCorrespondingSourceObject: {fileID: 8102155473089344357, guid: d56b87557a2d32340bf36655f72d7ef8,
        type: 3}
      insertIndex: -1
      addedObject: {fileID: -3582842234747446454}
  m_SourcePrefab: {fileID: 100100000, guid: d56b87557a2d32340bf36655f72d7ef8, type: 3}
--- !u!1 &5741213976715805117 stripped
GameObject:
  m_CorrespondingSourceObject: {fileID: 8102155473089344357, guid: d56b87557a2d32340bf36655f72d7ef8,
    type: 3}
  m_PrefabInstance: {fileID: 4601624148175581912}
  m_PrefabAsset: {fileID: 0}
--- !u!135 &1534790495200645119
SphereCollider:
  m_ObjectHideFlags: 0
  m_CorrespondingSourceObject: {fileID: 0}
  m_PrefabInstance: {fileID: 0}
  m_PrefabAsset: {fileID: 0}
  m_GameObject: {fileID: 5741213976715805117}
  m_Material: {fileID: 0}
  m_IncludeLayers:
    serializedVersion: 2
    m_Bits: 0
  m_ExcludeLayers:
    serializedVersion: 2
    m_Bits: 896
  m_LayerOverridePriority: 0
  m_IsTrigger: 1
  m_ProvidesContacts: 0
  m_Enabled: 1
  serializedVersion: 3
  m_Radius: 1.2640762
  m_Center: {x: 0, y: 0, z: -0.006843567}
--- !u!54 &-7051734694357910973
Rigidbody:
  m_ObjectHideFlags: 0
  m_CorrespondingSourceObject: {fileID: 0}
  m_PrefabInstance: {fileID: 0}
  m_PrefabAsset: {fileID: 0}
  m_GameObject: {fileID: 5741213976715805117}
  serializedVersion: 4
  m_Mass: 0.01
  m_Drag: 0
  m_AngularDrag: 0.05
  m_CenterOfMass: {x: 0, y: 0, z: 0}
  m_InertiaTensor: {x: 1, y: 1, z: 1}
  m_InertiaRotation: {x: 0, y: 0, z: 0, w: 1}
  m_IncludeLayers:
    serializedVersion: 2
    m_Bits: 0
  m_ExcludeLayers:
    serializedVersion: 2
    m_Bits: 896
  m_ImplicitCom: 1
  m_ImplicitTensor: 1
  m_UseGravity: 0
  m_IsKinematic: 0
  m_Interpolate: 0
  m_Constraints: 0
  m_CollisionDetection: 0
--- !u!114 &-3582842234747446454
MonoBehaviour:
  m_ObjectHideFlags: 0
  m_CorrespondingSourceObject: {fileID: 0}
  m_PrefabInstance: {fileID: 0}
  m_PrefabAsset: {fileID: 0}
  m_GameObject: {fileID: 5741213976715805117}
  m_Enabled: 1
  m_EditorHideFlags: 0
  m_Script: {fileID: 11500000, guid: 72715afc88850cb45a1fbf9daf428ace, type: 3}
  m_Name: 
  m_EditorClassIdentifier: 
  damage: 75
  vfxBulletImpact: {fileID: 112862, guid: 697346715cb12694f8c787d2336ecf3d, type: 3}
