%YAML 1.1
%TAG !u! tag:unity3d.com,2011:
--- !u!114 &11400000
MonoBehaviour:
  m_ObjectHideFlags: 0
  m_CorrespondingSourceObject: {fileID: 0}
  m_PrefabInstance: {fileID: 0}
  m_PrefabAsset: {fileID: 0}
  m_GameObject: {fileID: 0}
  m_Enabled: 1
  m_EditorHideFlags: 0
  m_Script: {fileID: 11500000, guid: 289f9d141917d184bb7e8016eb879101, type: 3}
  m_Name: Av_Beat-kakke
  m_EditorClassIdentifier: 
  icon: {fileID: 21300000, guid: 7c8a875865df8a74e9096e579cb37fd1, type: 3}
  achievementID: beatkakke
  title: Beat-kakke
  description: You were having too much fun but it had to stop at some point, so
    you decided to eliminate +5 enemies at once with your ground slam.
  isUnlocked: 0
  currentProgress: 0
  goal: 1
