%YAML 1.1
%TAG !u! tag:unity3d.com,2011:
--- !u!114 &11400000
MonoBehaviour:
  m_ObjectHideFlags: 0
  m_CorrespondingSourceObject: {fileID: 0}
  m_PrefabInstance: {fileID: 0}
  m_PrefabAsset: {fileID: 0}
  m_GameObject: {fileID: 0}
  m_Enabled: 1
  m_EditorHideFlags: 0
  m_Script: {fileID: 11500000, guid: 289f9d141917d184bb7e8016eb879101, type: 3}
  m_Name: Av_GreatAssets
  m_EditorClassIdentifier: 
  icon: {fileID: 21300000, guid: b0549c43fd0457e43911e1c7c882426f, type: 3}
  achievementID: greatassets
  title: Great Assets
  description: Oh, who would've thought that slamming your op fist against the ground
    would deal so much damage. Mindblowing, literally.
  isUnlocked: 0
  currentProgress: 0
  goal: 1
