%YAML 1.1
%TAG !u! tag:unity3d.com,2011:
--- !u!114 &11400000
MonoBehaviour:
  m_ObjectHideFlags: 0
  m_CorrespondingSourceObject: {fileID: 0}
  m_PrefabInstance: {fileID: 0}
  m_PrefabAsset: {fileID: 0}
  m_GameObject: {fileID: 0}
  m_Enabled: 1
  m_EditorHideFlags: 0
  m_Script: {fileID: 11500000, guid: 289f9d141917d184bb7e8016eb879101, type: 3}
  m_Name: Av_Level2
  m_EditorClassIdentifier: 
  icon: {fileID: 21300000, guid: b5c44ec75203e564fad2f9ba1e288c5f, type: 3}
  achievementID: level2
  title: DEATH!
  description: Hmph... The Level 2 has been surpassed, but chaos will impede everything
    next.
  isUnlocked: 0
  currentProgress: 0
  goal: 1
